{
  "activation_energy": 1.0,
  "log_curing": true,
  "dcd_write": 100000.0,
  "curing_log_period": 100000.0,
  "bond": true,
  "temp_prof": [
    [
      30000.0,
      30.0
    ],
    [
      530000.0,
      50
    ],
    [
      5030000.0,
      50
    ]
  ],
  "dt": 0.01,
  "sec_bond_weight": 10,
  "legacy_bonding": false,
  "ext_init_struct_path": null,
  "n_mul": 1000.0,
  "exclude_mixing_in_output": false,
  "mix_time": 30000.0,
  "density": 1.0,
  "bond_period": 10.0,
  "mix_kt": 30.0,
  "log_write": 100000.0,
  "sim_name": "epoxy_curing_flat_temperature_profile_50kT",
  "shrink": true
}