0.025 1.2987304551049057 0.00068
0.07500000000000001 1.2223345459810875 0.00516
0.125 1.1580011488241881 0.01668
0.17500000000000002 1.028247641720577 0.0366
0.225 1.0056707381381285 0.06872
0.275 0.9696403850330744 0.11492
0.325 0.9323910168654947 0.17692
0.375 0.8376427195647025 0.25104
0.42500000000000004 0.8470440430963414 0.34728
0.47500000000000003 0.8338712147168025 0.4656
0.525 0.8133510083152101 0.60656
0.5750000000000001 0.832657679543477 0.77964
0.625 0.8587616906199754 0.99052
0.675 0.8945444203620728 1.24672
0.7250000000000001 0.9065809310921538 1.54624
0.775 0.9652797948931786 1.91064
0.8250000000000001 1.0701037748016802 2.3684
0.875 1.2141047364019175 2.9526
0.925 1.4594073428434116 3.73736
0.9750000000000001 1.6152947481263003 4.70236
1.0250000000000001 1.6017089971574143 5.75988
1.075 1.486332810170316 6.83928
1.125 1.2622173346151793 7.84316
1.175 1.1184600841488848 8.81352
1.225 1.0364986337815054 9.79092
1.2750000000000001 1.0166803610921638 10.82948
1.3250000000000002 1.005873427106291 11.93916
1.375 1.0131801222361971 13.14284
1.425 1.0156549280683533 14.4388
1.475 1.012691999496157 15.82324
1.5250000000000001 1.0294424028081952 17.3276
1.5750000000000002 1.0350529387302896 18.94096
1.625 1.0367809604569385 20.66124
1.675 1.038299137931403 22.49168
1.725 1.0464164388051829 24.4482
1.7750000000000001 1.04877176910365 26.52444
1.8250000000000002 1.0547872506647513 28.73188
1.875 1.0362428754275257 31.02096
1.925 1.0461446552741216 33.4568
1.975 1.0313366129590755 35.98452
2.025 1.0271609289307655 38.63108
2.075 1.019716094532896 41.3898
2.125 1.0244298085239618 44.29644
2.1750000000000003 1.016710186035354 47.31852
2.225 1.0065202819135846 50.44944
2.275 1.0085834416897137 53.72936
2.325 1.0143450052017238 57.1746
2.375 1.0106403418984375 60.75648
2.4250000000000003 1.010565129192065 64.49048
2.475 1.0156155923173866 68.39948
2.5250000000000004 1.0145448624277422 72.46372
2.575 1.0059738808930856 76.6548
2.625 1.0107283175892694 81.0308
2.6750000000000003 1.0057267435544421 85.5526
2.725 1.0113820445894752 90.2714
2.7750000000000004 1.007961391615789 95.1484
2.825 1.0000230088220932 100.16292
2.875 1.007611131275681 105.39592
2.9250000000000003 1.0028200125183668 110.78676
2.975 1.0046482835083246 116.37364
3.0250000000000004 1.0041181644513841 122.14684
3.075 1.0032189328291854 128.10712
3.125 1.005532877772979 134.277
3.1750000000000003 1.0053163579071114 140.64452
3.225 1.0065701203249235 147.22236
3.2750000000000004 1.0048872512292357 153.9944
3.325 1.0022162055750357 160.95624
3.375 1.0070801715575965 168.16384
3.4250000000000003 1.0060793647090926 175.5792
3.475 1.0049243675008475 183.20388
3.5250000000000004 1.0055865790115257 191.05472
3.575 1.0043444455060537 199.11988
3.625 1.004013457214788 207.40948
3.6750000000000003 1.0038753364825153 215.92816
3.725 1.0027175270615163 224.67012
3.7750000000000004 1.0017241033016235 233.63944
3.825 0.9979115005308394 242.81288
3.875 1.0027795121847085 252.27364
3.9250000000000003 1.0043291267228516 261.99512
3.975 1.002570901276192 271.9484
4.025 1.004314823019381 282.1714
4.075 1.0007952272362224 292.61324
4.125 1.004434661198719 303.3518
4.175 1.004874469046913 314.35708
4.2250000000000005 1.0040243464014134 325.618
4.275 1.004043102579319 337.14724
4.325 1.003329763328239 348.93936
4.375 1.000909805761664 360.9766
4.425 1.0022862364309315 373.30748
4.4750000000000005 1.0003950676547144 385.8948
4.525 1.0025987564117758 398.79332
4.575 1.0024115372938318 411.976
4.625 1.0021736132791816 425.4452
4.675 1.0017106639912658 439.20084
4.7250000000000005 1.003013185881044 453.27056
4.775 1.0031427016059895 467.64148
4.825 1.0002485180045038 482.2726
4.875 1.0032323965699828 497.25308
4.925000000000001 1.0019341722959114 512.52264
4.9750000000000005 1.0012259927303016 528.0928
5.025 1.0029241637659736 544.00444
5.075 0.9975540372322025 560.1474
5.125 1.001169613089146 576.66968
5.175000000000001 0.9995058146860052 593.48792
5.2250000000000005 1.0016653087664988 610.66976
5.275 1.000957774668117 628.16964
5.325 1.001662693747222 646.0154
5.375 1.0038363843646165 664.23732
5.425000000000001 1.0057038945918437 682.83436
5.4750000000000005 1.0007182349179518 701.68188
5.525 1.0009822429927593 720.88028
5.575 0.9994617658662129 740.39804
5.625 0.9989516119363533 760.25732
5.675000000000001 1.0006703736106737 780.506
5.7250000000000005 1.0014369139578483 801.12884
5.775 1.0010496462194483 822.10536
5.825 1.0007344369630697 843.43996
5.875 1.0010097742723658 865.14836
5.925000000000001 1.0007742592955335 887.22264
5.9750000000000005 1.0008379452418552 909.67248
6.025 1.0009844099843603 932.50296
